"n","FP","r_density_mean","r_density_sd","r_spectral_mean","r_spectral_sd","r_aspl_mean","r_aspl_sd"
"100",0.1,1,0,0.999757575757576,0.00196776651508145,0.999878787878788,0.00120806049313034
"100",0.2,1,0,0.999717171717171,0.0020837935710006,1,0
"100",0.3,1,0,0.999393939393939,0.00282577214618276,1,0
"200",0.1,1,0,1,0,0.999717171717171,0.00183287420881977
"200",0.2,1,0,1,0,1,0
"200",0.3,1,0,1,0,1,0
"500",0.1,1,0,1,0,1,0
"500",0.2,1,0,1,0,1,0
"500",0.3,1,0,1,0,1,0
"1000",0.1,1,0,1,0,1,0
"1000",0.2,1,0,1,0,1,0
"1000",0.3,1,0,1,0,1,0
