"n","FP","r_density_mean","r_density_sd","r_spectral_mean","r_spectral_sd","r_aspl_mean","r_aspl_sd"
"100",0.1,0.97030303030303,0.0231882906287161,0.967393939393939,0.0249434468498765,0.971555555555555,0.0238536441276023
"100",0.2,0.923313131313131,0.0608608676861221,0.919272727272727,0.0608177917006309,0.922777024451615,0.0578805548388389
"100",0.3,0.846707070707071,0.110606337808492,0.847191919191919,0.112065098806203,0.840646464646465,0.11248516534229
"200",0.1,0.969454545454545,0.0246532534688048,0.968444444444444,0.0252919337107338,0.972888888888889,0.0231028038128757
"200",0.2,0.922222222222222,0.0510755922775516,0.91830303030303,0.0531259962737546,0.91640404040404,0.0552127317067077
"200",0.3,0.854989898989899,0.0936300261698879,0.852040404040404,0.0951568320035775,0.851595959595959,0.0947585042463219
"500",0.1,0.96610101010101,0.0258187867265809,0.965212121212121,0.0257933982055698,0.966545454545454,0.0251254992372912
"500",0.2,0.91850505050505,0.0584055218785736,0.918262626262626,0.0590381421639118,0.916,0.0615335137180056
"500",0.3,0.848282828282828,0.102982996470385,0.84610101010101,0.102039836208184,0.846060606060606,0.104353046910188
"1000",0.1,0.965212121212121,0.0268390459356801,0.965414141414141,0.0259606613397472,0.963515151515151,0.0277485822168107
"1000",0.2,0.911272727272727,0.0608337872201631,0.912444444444444,0.0618541266979767,0.909333333333333,0.0616983957195
"1000",0.3,0.853858585858586,0.114112624709687,0.853858585858586,0.112630300261377,0.852808080808081,0.114779846799559
